Label 'subpoint_map':
[0]: 7 (1)
[0]: 3 (0)
[0]: 4 (0)
[0]: 0 (102)
[0]: 6 (101)
[0]: 8 (101)
[0]: 1 (-102)
[0]: 9 (-101)
[0]: 10 (-101)
Mesh 'Hybrid Mesh':
Max sizes cone: 4 support: 3
orientation is missing
cap --> base:
[0]: 3 ----> 9
[0]: 3 ----> 11
[0]: 4 ----> 9
[0]: 4 ----> 10
[0]: 4 ----> 15
[0]: 5 ----> 10
[0]: 5 ----> 11
[0]: 5 ----> 16
[0]: 6 ----> 12
[0]: 6 ----> 13
[0]: 7 ----> 14
[0]: 7 ----> 13
[0]: 7 ----> 15
[0]: 8 ----> 14
[0]: 8 ----> 12
[0]: 8 ----> 16
[0]: 9 ----> 0
[0]: 10 ----> 0
[0]: 10 ----> 2
[0]: 11 ----> 0
[0]: 12 ----> 1
[0]: 13 ----> 1
[0]: 14 ----> 2
[0]: 14 ----> 1
[0]: 15 ----> 2
[0]: 16 ----> 2
base <-- cap:
[0]: 0 <---- 9 (0)
[0]: 0 <---- 10 (0)
[0]: 0 <---- 11 (0)
[0]: 1 <---- 12 (0)
[0]: 1 <---- 14 (-2)
[0]: 1 <---- 13 (0)
[0]: 2 <---- 10 (0)
[0]: 2 <---- 14 (0)
[0]: 2 <---- 15 (0)
[0]: 2 <---- 16 (0)
[0]: 9 <---- 3 (0)
[0]: 9 <---- 4 (0)
[0]: 10 <---- 4 (0)
[0]: 10 <---- 5 (0)
[0]: 11 <---- 5 (0)
[0]: 11 <---- 3 (0)
[0]: 12 <---- 6 (0)
[0]: 12 <---- 8 (0)
[0]: 13 <---- 7 (0)
[0]: 13 <---- 6 (0)
[0]: 14 <---- 7 (0)
[0]: 14 <---- 8 (0)
[0]: 15 <---- 4 (0)
[0]: 15 <---- 7 (0)
[0]: 16 <---- 5 (0)
[0]: 16 <---- 8 (0)
coordinates with 1 fields
  field 0 with 2 components
Process 0:
  (   3) dim  2 offset   0 -0.5 0.5
  (   4) dim  2 offset   2 0 0
  (   5) dim  2 offset   4 0 1
  (   6) dim  2 offset   6 0.5 0.5
  (   7) dim  2 offset   8 0 0
  (   8) dim  2 offset  10 0 1
Label 'marker':
[0]: 3 (1)
[0]: 4 (1)
[0]: 5 (1)
[0]: 6 (1)
[0]: 7 (1)
[0]: 8 (1)
[0]: 9 (1)
[0]: 11 (1)
[0]: 12 (1)
[0]: 13 (1)