Label 'subpoint_map':
[0]: 30 (1)
[0]: 39 (1)
[0]: 40 (1)
[0]: 11 (0)
[0]: 15 (0)
[0]: 19 (0)
[0]: 1 (102)
[0]: 4 (102)
[0]: 7 (102)
[0]: 8 (102)
[0]: 29 (101)
[0]: 31 (101)
[0]: 38 (101)
[0]: 46 (101)
[0]: 2 (-102)
[0]: 5 (-102)
[0]: 32 (-101)
[0]: 34 (-101)
[0]: 20 (200)
Mesh 'Hybrid Mesh':
Max sizes cone: 4 support: 6
orientation is missing
cap --> base:
[0]: 12 ----> 31
[0]: 12 ----> 34
[0]: 13 ----> 33
[0]: 13 ----> 34
[0]: 13 ----> 37
[0]: 14 ----> 36
[0]: 14 ----> 37
[0]: 14 ----> 58
[0]: 15 ----> 39
[0]: 15 ----> 40
[0]: 16 ----> 31
[0]: 16 ----> 32
[0]: 16 ----> 41
[0]: 17 ----> 32
[0]: 17 ----> 33
[0]: 17 ----> 35
[0]: 17 ----> 43
[0]: 18 ----> 35
[0]: 18 ----> 36
[0]: 18 ----> 45
[0]: 18 ----> 59
[0]: 19 ----> 38
[0]: 19 ----> 39
[0]: 19 ----> 47
[0]: 20 ----> 41
[0]: 20 ----> 42
[0]: 20 ----> 48
[0]: 21 ----> 42
[0]: 21 ----> 43
[0]: 21 ----> 44
[0]: 21 ----> 50
[0]: 22 ----> 44
[0]: 22 ----> 45
[0]: 22 ----> 46
[0]: 22 ----> 52
[0]: 22 ----> 60
[0]: 23 ----> 46
[0]: 23 ----> 57
[0]: 23 ----> 47
[0]: 23 ----> 54
[0]: 23 ----> 61
[0]: 23 ----> 61
[0]: 24 ----> 48
[0]: 24 ----> 49
[0]: 25 ----> 49
[0]: 25 ----> 50
[0]: 25 ----> 51
[0]: 26 ----> 51
[0]: 26 ----> 52
[0]: 26 ----> 53
[0]: 27 ----> 53
[0]: 27 ----> 54
[0]: 28 ----> 55
[0]: 28 ----> 40
[0]: 28 ----> 58
[0]: 29 ----> 55
[0]: 29 ----> 38
[0]: 29 ----> 56
[0]: 29 ----> 59
[0]: 30 ----> 56
[0]: 30 ----> 57
[0]: 30 ----> 60
[0]: 31 ----> 0
[0]: 32 ----> 0
[0]: 32 ----> 3
[0]: 33 ----> 0
[0]: 33 ----> 1
[0]: 34 ----> 0
[0]: 35 ----> 1
[0]: 35 ----> 4
[0]: 36 ----> 1
[0]: 36 ----> 9
[0]: 37 ----> 1
[0]: 38 ----> 2
[0]: 38 ----> 5
[0]: 39 ----> 2
[0]: 40 ----> 2
[0]: 41 ----> 3
[0]: 42 ----> 3
[0]: 42 ----> 6
[0]: 43 ----> 3
[0]: 43 ----> 4
[0]: 44 ----> 4
[0]: 44 ----> 7
[0]: 45 ----> 4
[0]: 45 ----> 10
[0]: 46 ----> 11
[0]: 46 ----> 8
[0]: 47 ----> 5
[0]: 48 ----> 6
[0]: 49 ----> 6
[0]: 50 ----> 6
[0]: 50 ----> 7
[0]: 51 ----> 7
[0]: 52 ----> 7
[0]: 52 ----> 8
[0]: 53 ----> 8
[0]: 54 ----> 8
[0]: 55 ----> 9
[0]: 55 ----> 2
[0]: 56 ----> 10
[0]: 56 ----> 5
[0]: 57 ----> 5
[0]: 57 ----> 11
[0]: 58 ----> 9
[0]: 59 ----> 9
[0]: 59 ----> 10
[0]: 60 ----> 10
[0]: 60 ----> 11
[0]: 61 ----> 11
base <-- cap:
[0]: 0 <---- 31 (0)
[0]: 0 <---- 32 (0)
[0]: 0 <---- 33 (0)
[0]: 0 <---- 34 (0)
[0]: 1 <---- 33 (-2)
[0]: 1 <---- 35 (0)
[0]: 1 <---- 36 (0)
[0]: 1 <---- 37 (0)
[0]: 2 <---- 55 (-2)
[0]: 2 <---- 38 (0)
[0]: 2 <---- 39 (0)
[0]: 2 <---- 40 (0)
[0]: 3 <---- 41 (0)
[0]: 3 <---- 42 (0)
[0]: 3 <---- 43 (0)
[0]: 3 <---- 32 (-2)
[0]: 4 <---- 43 (-2)
[0]: 4 <---- 44 (0)
[0]: 4 <---- 45 (0)
[0]: 4 <---- 35 (-2)
[0]: 5 <---- 56 (-2)
[0]: 5 <---- 57 (0)
[0]: 5 <---- 47 (0)
[0]: 5 <---- 38 (-2)
[0]: 6 <---- 48 (0)
[0]: 6 <---- 49 (0)
[0]: 6 <---- 50 (0)
[0]: 6 <---- 42 (-2)
[0]: 7 <---- 50 (-2)
[0]: 7 <---- 51 (0)
[0]: 7 <---- 52 (0)
[0]: 7 <---- 44 (-2)
[0]: 8 <---- 52 (-2)
[0]: 8 <---- 53 (0)
[0]: 8 <---- 54 (0)
[0]: 8 <---- 46 (-2)
[0]: 9 <---- 36 (0)
[0]: 9 <---- 55 (0)
[0]: 9 <---- 59 (0)
[0]: 9 <---- 58 (0)
[0]: 10 <---- 45 (0)
[0]: 10 <---- 56 (0)
[0]: 10 <---- 60 (0)
[0]: 10 <---- 59 (0)
[0]: 11 <---- 46 (-2)
[0]: 11 <---- 57 (-2)
[0]: 11 <---- 60 (0)
[0]: 11 <---- 61 (0)
[0]: 31 <---- 12 (0)
[0]: 31 <---- 16 (0)
[0]: 32 <---- 16 (0)
[0]: 32 <---- 17 (0)
[0]: 33 <---- 17 (0)
[0]: 33 <---- 13 (0)
[0]: 34 <---- 13 (0)
[0]: 34 <---- 12 (0)
[0]: 35 <---- 17 (0)
[0]: 35 <---- 18 (0)
[0]: 36 <---- 18 (0)
[0]: 36 <---- 14 (0)
[0]: 37 <---- 14 (0)
[0]: 37 <---- 13 (0)
[0]: 38 <---- 29 (0)
[0]: 38 <---- 19 (0)
[0]: 39 <---- 19 (0)
[0]: 39 <---- 15 (0)
[0]: 40 <---- 15 (0)
[0]: 40 <---- 28 (0)
[0]: 41 <---- 16 (0)
[0]: 41 <---- 20 (0)
[0]: 42 <---- 20 (0)
[0]: 42 <---- 21 (0)
[0]: 43 <---- 21 (0)
[0]: 43 <---- 17 (0)
[0]: 44 <---- 21 (0)
[0]: 44 <---- 22 (0)
[0]: 45 <---- 22 (0)
[0]: 45 <---- 18 (0)
[0]: 46 <---- 22 (0)
[0]: 46 <---- 23 (0)
[0]: 47 <---- 23 (0)
[0]: 47 <---- 19 (0)
[0]: 48 <---- 20 (0)
[0]: 48 <---- 24 (0)
[0]: 49 <---- 24 (0)
[0]: 49 <---- 25 (0)
[0]: 50 <---- 25 (0)
[0]: 50 <---- 21 (0)
[0]: 51 <---- 25 (0)
[0]: 51 <---- 26 (0)
[0]: 52 <---- 26 (0)
[0]: 52 <---- 22 (0)
[0]: 53 <---- 26 (0)
[0]: 53 <---- 27 (0)
[0]: 54 <---- 27 (0)
[0]: 54 <---- 23 (0)
[0]: 55 <---- 29 (0)
[0]: 55 <---- 28 (0)
[0]: 56 <---- 30 (0)
[0]: 56 <---- 29 (0)
[0]: 57 <---- 30 (0)
[0]: 57 <---- 23 (0)
[0]: 58 <---- 14 (0)
[0]: 58 <---- 28 (0)
[0]: 59 <---- 18 (0)
[0]: 59 <---- 29 (0)
[0]: 60 <---- 22 (0)
[0]: 60 <---- 30 (0)
[0]: 61 <---- 23 (0)
[0]: 61 <---- 23 (0)
coordinates with 1 fields
  field 0 with 2 components
Process 0:
  (  12) dim  2 offset   0 -3 3
  (  13) dim  2 offset   2 -1 3
  (  14) dim  2 offset   4 1 3
  (  15) dim  2 offset   6 3 3
  (  16) dim  2 offset   8 -3 1
  (  17) dim  2 offset  10 -1 1
  (  18) dim  2 offset  12 1 1
  (  19) dim  2 offset  14 3 1
  (  20) dim  2 offset  16 -3 -1
  (  21) dim  2 offset  18 -1 -1
  (  22) dim  2 offset  20 1 -1
  (  23) dim  2 offset  22 3 -1
  (  24) dim  2 offset  24 -3 -3
  (  25) dim  2 offset  26 -1 -3
  (  26) dim  2 offset  28 1 -3
  (  27) dim  2 offset  30 3 -3
  (  28) dim  2 offset  32 1 3
  (  29) dim  2 offset  34 1 1
  (  30) dim  2 offset  36 1 -1
