  0 KSP Residual norm 726.749 
  1 KSP Residual norm 109.161 
  2 KSP Residual norm 79.2738 
  3 KSP Residual norm 49.0647 
  4 KSP Residual norm 3.91183 
  5 KSP Residual norm 1.07203 
  6 KSP Residual norm 0.429376 
  7 KSP Residual norm 0.187056 
  8 KSP Residual norm 0.0110892 
  9 KSP Residual norm 0.00283316 
  0 KSP Residual norm 0.00726749 
  1 KSP Residual norm 0.00109161 
  2 KSP Residual norm 0.000792738 
  3 KSP Residual norm 0.000490647 
  4 KSP Residual norm 3.91183e-05 
  5 KSP Residual norm 1.07203e-05 
  6 KSP Residual norm 4.29376e-06 
  7 KSP Residual norm 1.87056e-06 
  8 KSP Residual norm 1.10892e-07 
  9 KSP Residual norm 2.83316e-08 
  0 KSP Residual norm 7.26749e-08 
  1 KSP Residual norm 1.09161e-08 
  2 KSP Residual norm 7.92738e-09 
  3 KSP Residual norm 4.90647e-09 
  4 KSP Residual norm 3.912e-10 
  5 KSP Residual norm 1.072e-10 
  6 KSP Residual norm 4.294e-11 
  7 KSP Residual norm 1.871e-11 
  8 KSP Residual norm < 1.e-11
  9 KSP Residual norm < 1.e-11
[0]main |b-Ax|/|b|=6.051136e-05, |b|=5.391826e+00, emax=9.969434e-01
